…
``` r
#Selected positive reviews, determined their sum to know most positive developer.
sg_review_analysis %>%
  filter(all_reviews %in% c(1,2,3,4)) %>%
  group_by(developer) %>%
  summarise(sum_rev = sum(as.numeric(as.character(all_reviews)))) %>%
  arrange(-sum_rev)
```

    ## # A tibble: 6,817 × 2
    ##    developer                  sum_rev
    ##    <chr>                        <dbl>
    ##  1 SCS Software                   163
    ##  2 Dovetail Games                 152
    ##  3 CAPCOM Co., Ltd.               122
    ##  4 Choice of Games                 98
    ##  5 KOEI TECMO GAMES CO., LTD.      78
    ##  6 Valve                           75
    ##  7 Paradox Development Studio      69
    ##  8 Capcom                          67
    ##  9 Rebellion                       66
    ## 10 Quiet River                     65
    ## # ℹ 6,807 more rows
…
